[{
  "response":{
    "status":"ok",
    "userTier":"developer",
    "total":24456,
    "startIndex":1,
    "pageSize":10,
    "currentPage":1,
    "pages":2446,
    "orderBy":"relevance",
    "results":[
      {
        "id":"society/2017/oct/19/paul-keating-says-assisted-dying-unacceptable-as-victoria-debates-law",
        "type":"article",
        "sectionId":"society",
        "sectionName":"Society",
        "webPublicationDate":"2017-10-19T05:30:45Z",
        "webTitle":"Paul Keating says assisted dying 'unacceptable' as Victoria debates law",
        "webUrl":"https://www.theguardian.com/society/2017/oct/19/paul-keating-says-assisted-dying-unacceptable-as-victoria-debates-law",
        "apiUrl":"https://content.guardianapis.com/society/2017/oct/19/paul-keating-says-assisted-dying-unacceptable-as-victoria-debates-law",
        "isHosted":false,
        "pillarId":"pillar/news",
        "pillarName":"News"
      },
      {
        "id":"science/occams-corner/2017/nov/06/universities-are-part-of-the-solution-to-dysfunctional-brexit-debates",
        "type":"article",
        "sectionId":"science",
        "sectionName":"Science",
        "webPublicationDate":"2017-11-06T11:14:55Z",
        "webTitle":"Universities are part of the solution to dysfunctional Brexit debates",
        "webUrl":"https://www.theguardian.com/science/occams-corner/2017/nov/06/universities-are-part-of-the-solution-to-dysfunctional-brexit-debates",
        "apiUrl":"https://content.guardianapis.com/science/occams-corner/2017/nov/06/universities-are-part-of-the-solution-to-dysfunctional-brexit-debates",
        "isHosted":false,
        "pillarId":"pillar/news",
        "pillarName":"News"
      },
      {
        "id":"politics/blog/live/2018/jan/09/reshuffle-government-tory-cabinet-theresa-may-not-quite-says-new-tory-chair-when-asked-about-party-being-in-a-mess-politics-live",
        "type":"liveblog",
        "sectionId":"politics",
        "sectionName":"Politics",
        "webPublicationDate":"2018-01-09T17:58:13Z",
        "webTitle":"Brexit department announces concessions over EU withdrawal bill ahead of key debates next week - Politics live",
        "webUrl":"https://www.theguardian.com/politics/blog/live/2018/jan/09/reshuffle-government-tory-cabinet-theresa-may-not-quite-says-new-tory-chair-when-asked-about-party-being-in-a-mess-politics-live",
        "apiUrl":"https://content.guardianapis.com/politics/blog/live/2018/jan/09/reshuffle-government-tory-cabinet-theresa-may-not-quite-says-new-tory-chair-when-asked-about-party-being-in-a-mess-politics-live",
        "isHosted":false,
        "pillarId":"pillar/news",
        "pillarName":"News"
      },
      {
        "id":"education/2018/feb/05/removed-painting-is-subtly-but-unmistakably-paedophilic",
        "type":"article",
        "sectionId":"education",
        "sectionName":"Education",
        "webPublicationDate":"2018-02-05T18:03:48Z",
        "webTitle":"Art’s removal prompted debate | Letters",
        "webUrl":"https://www.theguardian.com/education/2018/feb/05/removed-painting-is-subtly-but-unmistakably-paedophilic",
        "apiUrl":"https://content.guardianapis.com/education/2018/feb/05/removed-painting-is-subtly-but-unmistakably-paedophilic",
        "isHosted":false,
        "pillarId":"pillar/news",
        "pillarName":"News"
      },
      {
        "id":"teacher-network/2017/jul/04/is-technology-delivering-in-schools-our-panel-debates",
        "type":"article",
        "sectionId":"teacher-network",
        "sectionName":"Teacher Network",
        "webPublicationDate":"2017-07-04T11:05:54Z",
        "webTitle":"Is technology delivering in schools? Our panel debates",
        "webUrl":"https://www.theguardian.com/teacher-network/2017/jul/04/is-technology-delivering-in-schools-our-panel-debates",
        "apiUrl":"https://content.guardianapis.com/teacher-network/2017/jul/04/is-technology-delivering-in-schools-our-panel-debates",
        "isHosted":false,
        "pillarId":"pillar/news",
        "pillarName":"News"
      },
      {
        "id":"society/2017/oct/20/victorias-parliament-debates-voluntary-assisted-dying-bill-for-24-hours-straight",
        "type":"article",
        "sectionId":"society",
        "sectionName":"Society",
        "webPublicationDate":"2017-10-19T23:14:54Z",
        "webTitle":"Victoria's parliament debates voluntary assisted dying bill for 24 hours straight",
        "webUrl":"https://www.theguardian.com/society/2017/oct/20/victorias-parliament-debates-voluntary-assisted-dying-bill-for-24-hours-straight",
        "apiUrl":"https://content.guardianapis.com/society/2017/oct/20/victorias-parliament-debates-voluntary-assisted-dying-bill-for-24-hours-straight",
        "isHosted":false,
        "pillarId":"pillar/news",
        "pillarName":"News"
      },
      {
        "id":"commentisfree/2017/sep/28/a-reading-of-past-assisted-dying-debates-record-breathtaking-ignorance-and-lies",
        "type":"article",
        "sectionId":"commentisfree",
        "sectionName":"Opinion",
        "webPublicationDate":"2017-09-28T01:49:54Z",
        "webTitle":"A reading of past assisted dying debates records breathtaking ignorance and lies | Marshall Perron",
        "webUrl":"https://www.theguardian.com/commentisfree/2017/sep/28/a-reading-of-past-assisted-dying-debates-record-breathtaking-ignorance-and-lies",
        "apiUrl":"https://content.guardianapis.com/commentisfree/2017/sep/28/a-reading-of-past-assisted-dying-debates-record-breathtaking-ignorance-and-lies",
        "isHosted":false,
        "pillarId":"pillar/opinion",
        "pillarName":"Opinion"
      },
      {
        "id":"politics/2017/apr/18/theresa-may-rules-out-participating-in-tv-debates-before-election",
        "type":"article",
        "sectionId":"politics",
        "sectionName":"Politics",
        "webPublicationDate":"2017-04-18T17:20:59Z",
        "webTitle":"Theresa May rules out participating in TV debates before election",
        "webUrl":"https://www.theguardian.com/politics/2017/apr/18/theresa-may-rules-out-participating-in-tv-debates-before-election",
        "apiUrl":"https://content.guardianapis.com/politics/2017/apr/18/theresa-may-rules-out-participating-in-tv-debates-before-election",
        "isHosted":false,
        "pillarId":"pillar/news",
        "pillarName":"News"
      },
      {
        "id":"sport/2018/feb/06/uk-sport-looks-forward-to-funding-debate",
        "type":"article",
        "sectionId":"sport",
        "sectionName":"Sport",
        "webPublicationDate":"2018-02-06T18:22:22Z",
        "webTitle":"UK Sport looks forward to funding debate | Letters",
        "webUrl":"https://www.theguardian.com/sport/2018/feb/06/uk-sport-looks-forward-to-funding-debate",
        "apiUrl":"https://content.guardianapis.com/sport/2018/feb/06/uk-sport-looks-forward-to-funding-debate",
        "isHosted":false,
        "pillarId":"pillar/sport",
        "pillarName":"Sport"
      },
      {
        "id":"business/2018/jan/17/parliament-to-debate-rbs-hang-themselves-comment",
        "type":"article",
        "sectionId":"business",
        "sectionName":"Business",
        "webPublicationDate":"2018-01-17T18:51:20Z",
        "webTitle":"Parliament to debate RBS 'hang themselves' comment",
        "webUrl":"https://www.theguardian.com/business/2018/jan/17/parliament-to-debate-rbs-hang-themselves-comment",
        "apiUrl":"https://content.guardianapis.com/business/2018/jan/17/parliament-to-debate-rbs-hang-themselves-comment",
        "isHosted":false,
        "pillarId":"pillar/news",
        "pillarName":"News"
      }
    ]
  }
}]